<svg xmlns="http://www.w3.org/2000/svg" width="2000" height="1200" viewBox="0 0 2000 1200">
  <defs>
    <style>
      .cls-1 {
        font-size: 381.649px;
        fill: #ff0;
      }

      .cls-1, .cls-2, .cls-3, .cls-4, .cls-5, .cls-6 {
        font-family: Bouncy-ThinPERSONALUSEONLY, Bouncy-ThinPERSONALUSEONLY, Bouncy-ThinPERSONALUSEONLY, Bouncy;
        font-weight: 200;
      }

      .cls-2, .cls-3, .cls-4 {
        font-size: 200px;
      }

      .cls-2 {
        fill: #cf0;
      }

      .cls-3 {
        fill: #fc0;
      }

      .cls-4 {
        fill: #f60;
      }

      .cls-5 {
        font-size: 349.179px;
        fill: #0cf;
      }

      .cls-6 {
        font-size: 204.505px;
        fill: #09c;
      }
    </style>
  </defs>
  <text id="d" class="cls-1" transform="matrix(1.716, -0.242, 0.021, 1.391, 69.216, 728.312)">d</text>
  <text id="E" class="cls-2" transform="matrix(2.46, 0.46, -0.56, 2.055, 373.016, 735.572)">E</text>
  <text id="V" class="cls-3" transform="matrix(3.088, 0.302, -0.444, 2.113, 562.726, 631.879)">V</text>
  <text id="F" class="cls-4" transform="matrix(4.031, -0.18, 0.149, 2.566, 1079.682, 618.917)">F</text>
  <text id="O_" data-name="O " class="cls-5" transform="matrix(-1.8, 0.236, -0.097, -1.22, 1972.804, 225.222)">O </text>
  <text id="O" class="cls-6" transform="matrix(-0.486, -2.784, 2.68, -0.27, 1752.55, 776.788)">O</text>
</svg>
